Lab 3
…
# A tibble: 1 × 2
  word   familiarity
  <fct>        <dbl>
1 May-00         4.2

white_man_above_30  %>%
  slice_min(familiarity)

# A tibble: 25 × 2
   word              familiarity
   <fct>                   <dbl>
 1 ay yo trip                  1
 2 beezy                       1
 3 break someone out           1
 4 catch the vapors            1
 5 crossroads                  1
 6 crump                       1
 7 dap                         1
 8 dollar cab                  1
 9 domino                      1
10 duckets                     1
# … with 15 more rows
…
